<?xml version="1.0" encoding="UTF-8"?>
<session version="1.0">
<refactoring comment="Rename resource &apos;hw4_ene30/src/main_hw4_ene29_notch.c&apos; to &apos;main_hw4_ene30.c&apos;" description="Rename resource &apos;main_hw4_ene29_notch.c&apos;" flags="7" id="org.eclipse.ltk.core.refactoring.rename.resource" input="src/main_hw4_ene29_notch.c" name="main_hw4_ene30.c" stamp="1580388930375" updateReferences="true"/>
</session>