<?xml version="1.0" encoding="UTF-8"?>
<session version="1.0">
<refactoring comment="Rename resource &apos;hw1_mar07_offset/src/main_hw1_mar07_Seq.c&apos; to &apos;main_hw1_mar07_offset.c&apos;" description="Rename resource &apos;main_hw1_mar07_Seq.c&apos;" flags="7" id="org.eclipse.ltk.core.refactoring.rename.resource" input="src/main_hw1_mar07_Seq.c" name="main_hw1_mar07_offset.c" stamp="1583612569430" updateReferences="true"/>
</session>