<?xml version="1.0" encoding="UTF-8"?>
<session version="1.0">
<refactoring comment="Rename resource &apos;hw4_test_driverADC2/src/main_hw3_test_driverADC.c&apos; to &apos;main_hw4_test_driverADC.c&apos;" description="Rename resource &apos;main_hw3_test_driverADC.c&apos;" flags="7" id="org.eclipse.ltk.core.refactoring.rename.resource" input="src/main_hw3_test_driverADC.c" name="main_hw4_test_driverADC.c" stamp="1575568507248" updateReferences="true"/>
</session>