<?xml version="1.0" encoding="UTF-8"?>
<session version="1.0">
<refactoring comment="Rename resource &apos;hw2_arm0_may7_AIC/src/hw2_arm0_apr09_Paper_2kHz.c&apos; to &apos;hw2_arm0_may7_AIC.c&apos;" description="Rename resource &apos;hw2_arm0_apr09_Paper_2kHz.c&apos;" flags="7" id="org.eclipse.ltk.core.refactoring.rename.resource" input="src/hw2_arm0_apr09_Paper_2kHz.c" name="hw2_arm0_may7_AIC.c" stamp="1620401325926" updateReferences="true"/>
</session>