<?xml version="1.0" encoding="UTF-8"?>
<session version="1.0">
<refactoring comment="Rename resource &apos;hw2_arm0_mar10_M2C_IP/src/hw0_arm0_mar08_V0envelope.c&apos; to &apos;hw2_arm0_mar10_M2C_IP.c&apos;" description="Rename resource &apos;hw0_arm0_mar08_V0envelope.c&apos;" flags="7" id="org.eclipse.ltk.core.refactoring.rename.resource" input="src/hw0_arm0_mar08_V0envelope.c" name="hw2_arm0_mar10_M2C_IP.c" stamp="1615383529092" updateReferences="true"/>
</session>