<?xml version="1.0" encoding="UTF-8"?>
<session version="1.0">
<refactoring comment="Rename resource &apos;hw1_arm0_apr09_2kHz/src/hw1_arm0_mar24_PAPER.c&apos; to &apos;hw1_arm0_apr09_2kHz.c&apos;" description="Rename resource &apos;hw1_arm0_mar24_PAPER.c&apos;" flags="7" id="org.eclipse.ltk.core.refactoring.rename.resource" input="src/hw1_arm0_mar24_PAPER.c" name="hw1_arm0_apr09_2kHz.c" stamp="1617989893257" updateReferences="true"/>
</session>