<?xml version="1.0" encoding="UTF-8"?>
<session version="1.0">
<refactoring comment="Rename resource &apos;hw9_mar07_PWM_bateria/src/main_hw9_ene07_PWM_control.c&apos; to &apos;main_hw9_ene07_PWM_bateria.c&apos;" description="Rename resource &apos;main_hw9_ene07_PWM_control.c&apos;" flags="7" id="org.eclipse.ltk.core.refactoring.rename.resource" input="src/main_hw9_ene07_PWM_control.c" name="main_hw9_ene07_PWM_bateria.c" stamp="1610053361317" updateReferences="true"/>
</session>