<?xml version="1.0" encoding="UTF-8"?>
<session version="1.0">
<refactoring comment="Rename resource &apos;nlc_hw01_OL_NS_900V_VM_dbg2/src/main_hw00_900v_debug2.c&apos; to &apos;main_hw01_900v_debug2.c&apos;" description="Rename resource &apos;main_hw00_900v_debug2.c&apos;" flags="7" id="org.eclipse.ltk.core.refactoring.rename.resource" input="src/main_hw00_900v_debug2.c" name="main_hw01_900v_debug2.c" stamp="1564688351252" updateReferences="true"/>
</session>