<?xml version="1.0" encoding="UTF-8"?>
<session version="1.0">
<refactoring comment="Rename resource &apos;hw0_mar04_gridVoltageOriginal/src/main_hw0_mar03.c&apos; to &apos;main_hw0_mar04_original.c&apos;" description="Rename resource &apos;main_hw0_mar03.c&apos;" flags="7" id="org.eclipse.ltk.core.refactoring.rename.resource" input="src/main_hw0_mar03.c" name="main_hw0_mar04_original.c" stamp="1583326312934" updateReferences="true"/>
</session>