<?xml version="1.0" encoding="UTF-8"?>
<session version="1.0">
<refactoring comment="Rename resource &apos;hw3_testvoi3/src/main_hw1.c&apos; to &apos;main_hw3.c&apos;" description="Rename resource &apos;main_hw1.c&apos;" flags="7" id="org.eclipse.ltk.core.refactoring.rename.resource" input="src/main_hw1.c" name="main_hw3.c" stamp="1576764842951" updateReferences="true"/>
</session>