<?xml version="1.0" encoding="UTF-8"?>
<session version="1.0">
<refactoring comment="Rename resource &apos;hw5_arm0_jan28_PRsat/src/hw4_arm0_jan28_Merge.c&apos; to &apos;hw5_arm0_jan28_PRsat.c&apos;" description="Rename resource &apos;hw4_arm0_jan28_Merge.c&apos;" flags="7" id="org.eclipse.ltk.core.refactoring.rename.resource" input="src/hw4_arm0_jan28_Merge.c" name="hw5_arm0_jan28_PRsat.c" stamp="1611857224118" updateReferences="true"/>
</session>