<?xml version="1.0" encoding="UTF-8"?>
<session version="1.0">
<refactoring comment="Rename resource &apos;hw2_arm0_jan27_PR50bits/src/hw0_arm0_jan25_NLC2cell.c&apos; to &apos;hw2_arm0_jan27_PR50bits.c&apos;" description="Rename resource &apos;hw0_arm0_jan25_NLC2cell.c&apos;" flags="7" id="org.eclipse.ltk.core.refactoring.rename.resource" input="src/hw0_arm0_jan25_NLC2cell.c" name="hw2_arm0_jan27_PR50bits.c" stamp="1611778805194" updateReferences="true"/>
</session>