<?xml version="1.0" encoding="UTF-8"?>
<session version="1.0">
<refactoring comment="Rename resource &apos;nlc_hw2_openloop_SSL/src/main_hw1.c&apos; to &apos;main_hw2.c&apos;" description="Rename resource &apos;main_hw1.c&apos;" flags="7" id="org.eclipse.ltk.core.refactoring.rename.resource" input="src/main_hw1.c" name="main_hw2.c" stamp="1562594236156" updateReferences="true"/>
</session>