<?xml version="1.0" encoding="UTF-8"?>
<session version="1.0">
<refactoring comment="Delete 6 resources" deleteContents="true" description="Delete 6 resources" element1="/pefft_system_bsp" element2="/pefft_system_bsp_xiicps_polled_master_example_1" element3="/pefft_system_bsp_xiicps_polled_master_example_2" element4="/pefft_system_wrapper_hw_platform_1" element5="/Template_v1" element6="/Template_v2" flags="7" id="org.eclipse.ltk.core.refactoring.delete.resources" resources="6" stamp="1538678880957"/>
</session>