<?xml version="1.0" encoding="UTF-8"?>
<session version="1.0">
<refactoring comment="Rename resource &apos;hw5_test_nlc_adc/src/main_hw4_test_driverADC.c&apos; to &apos;main_hw5_test_driverADC.c&apos;" description="Rename resource &apos;main_hw4_test_driverADC.c&apos;" flags="7" id="org.eclipse.ltk.core.refactoring.rename.resource" input="src/main_hw4_test_driverADC.c" name="main_hw5_test_driverADC.c" stamp="1575904409121" updateReferences="true"/>
</session>