<?xml version="1.0" encoding="UTF-8"?>
<session version="1.0">
<refactoring comment="Rename resource &apos;hw1_arm0_mar24_paperNLC/src/hw0_arm0_mar23_newNLC.c&apos; to &apos;hw1_arm0_mar24_paperNLC.c&apos;" description="Rename resource &apos;hw0_arm0_mar23_newNLC.c&apos;" flags="7" id="org.eclipse.ltk.core.refactoring.rename.resource" input="src/hw0_arm0_mar23_newNLC.c" name="hw1_arm0_mar24_paperNLC.c" stamp="1616582042581" updateReferences="true"/>
</session>