<?xml version="1.0" encoding="UTF-8"?>
<session version="1.0">
<refactoring comment="Rename resource &apos;hw1_mar04_GridFixed/src/main_hw1_mar04_original.c&apos; to &apos;main_hw1_mar04_fixed.c&apos;" description="Rename resource &apos;main_hw1_mar04_original.c&apos;" flags="7" id="org.eclipse.ltk.core.refactoring.rename.resource" input="src/main_hw1_mar04_original.c" name="main_hw1_mar04_fixed.c" stamp="1583332555730" updateReferences="true"/>
</session>