<?xml version="1.0" encoding="UTF-8"?>
<session version="1.0">
<refactoring comment="Rename resource &apos;hw4_arm1_mar22_FreeRTOS/src/hw1_FreeRTOS_main.c&apos; to &apos;hw4_FreeRTOS_main.c&apos;" description="Rename resource &apos;hw1_FreeRTOS_main.c&apos;" flags="7" id="org.eclipse.ltk.core.refactoring.rename.resource" input="src/hw1_FreeRTOS_main.c" name="hw4_FreeRTOS_main.c" stamp="1616261658993" updateReferences="true"/>
</session>